{
  "project_info": {
    "project_number": "867255527310",
    "project_id": "invoice-941af",
    "storage_bucket": "invoice-941af.appspot.com"
  },
  "client": [
    {
      "client_info": {
        "mobilesdk_app_id": "1:867255527310:android:e1f5e5340d0a9c95d426df",
        "android_client_info": {
          "package_name": "fr.corving.invoice"
        }
      },
      "oauth_client": [],
      "api_key": [
        {
          "current_key": "AIzaSyBw_PT9KgvvpvvBszcOeQFan9nb-mj3RX4"
        }
      ],
      "services": {
        "appinvite_service": {
          "other_platform_oauth_client": []
        }
      }
    }
  ],
  "configuration_version": "1"
}